…
``` r
litters_df = janitor::clean_names(litters_df)
```

## Take a look at the data

Option 1:

``` r
litters_df
```

    ## # A tibble: 49 × 8
    ##    group litter_number   gd0_weight gd18_weight gd_of_…¹ pups_…² pups_…³ pups_…⁴
    ##    <chr> <chr>                <dbl>       <dbl>    <dbl>   <dbl>   <dbl>   <dbl>
    ##  1 Con7  #85                   19.7        34.7       20       3       4       3
    ##  2 Con7  #1/2/95/2             27          42         19       8       0       7
    ##  3 Con7  #5/5/3/83/3-3         26          41.4       19       6       0       5
    ##  4 Con7  #5/4/2/95/2           28.5        44.1       19       5       1       4
    ##  5 Con7  #4/2/95/3-3           NA          NA         20       6       0       6
    ##  6 Con7  #2/2/95/3-2           NA          NA         20       6       0       4
    ##  7 Con7  #1/5/3/83/3-3/2       NA          NA         20       9       0       9
    ##  8 Con8  #3/83/3-3             NA          NA         20       9       1       8
    ##  9 Con8  #2/95/3               NA          NA         20       8       0       8
    ## 10 Con8  #3/5/2/2/95           28.5        NA         20       8       0       8
    ## # … with 39 more rows, and abbreviated variable names ¹​gd_of_birth,
    ## #   ²​pups_born_alive, ³​pups_dead_birth, ⁴​pups_survive
…
## IMPORTING (READING IN) EXCEL FILE

``` r
library(readxl)
mlb_df = read_excel("./data/mlb11.xlsx")
mlb_df
```

    ## # A tibble: 30 × 12
    ##    team         runs at_bats  hits homer…¹ bat_avg strik…² stole…³  wins new_o…⁴
    ##    <chr>       <dbl>   <dbl> <dbl>   <dbl>   <dbl>   <dbl>   <dbl> <dbl>   <dbl>
    ##  1 Texas Rang…   855    5659  1599     210   0.283     930     143    96   0.34 
    ##  2 Boston Red…   875    5710  1600     203   0.28     1108     102    90   0.349
    ##  3 Detroit Ti…   787    5563  1540     169   0.277    1143      49    95   0.34 
    ##  4 Kansas Cit…   730    5672  1560     129   0.275    1006     153    71   0.329
    ##  5 St. Louis …   762    5532  1513     162   0.273     978      57    90   0.341
    ##  6 New York M…   718    5600  1477     108   0.264    1085     130    77   0.335
    ##  7 New York Y…   867    5518  1452     222   0.263    1138     147    97   0.343
    ##  8 Milwaukee …   721    5447  1422     185   0.261    1083      94    96   0.325
    ##  9 Colorado R…   735    5544  1429     163   0.258    1201     118    73   0.329
    ## 10 Houston As…   615    5598  1442      95   0.258    1164     118    56   0.311
    ## # … with 20 more rows, 2 more variables: new_slug <dbl>, new_obs <dbl>, and
    ## #   abbreviated variable names ¹​homeruns, ²​strikeouts, ³​stolen_bases,
    ## #   ⁴​new_onbase
…
## IMPORTING SAS FILE

``` r
library(haven)
pulse_df = read_sas("./data/public_pulse_data.sas7bdat")
pulse_df
```

    ## # A tibble: 1,087 × 7
    ##       ID   age Sex    BDIScore_BL BDIScore_01m BDIScore_06m BDIScore_12m
    ##    <dbl> <dbl> <chr>        <dbl>        <dbl>        <dbl>        <dbl>
    ##  1 10003  48.0 male             7            1            2            0
    ##  2 10015  72.5 male             6           NA           NA           NA
    ##  3 10022  58.5 male            14            3            8           NA
    ##  4 10026  72.7 male            20            6           18           16
    ##  5 10035  60.4 male             4            0            1            2
    ##  6 10050  84.7 male             2           10           12            8
    ##  7 10078  31.3 male             4            0           NA           NA
    ##  8 10088  56.9 male             5           NA            0            2
    ##  9 10091  76.0 male             0            3            4            0
    ## 10 10092  74.2 female          10            2           11            6
    ## # … with 1,077 more rows

``` r
pulse_df = janitor::clean_names(pulse_df)
pulse_df
```

    ## # A tibble: 1,087 × 7
    ##       id   age sex    bdi_score_bl bdi_score_01m bdi_score_06m bdi_score_12m
    ##    <dbl> <dbl> <chr>         <dbl>         <dbl>         <dbl>         <dbl>
    ##  1 10003  48.0 male              7             1             2             0
    ##  2 10015  72.5 male              6            NA            NA            NA
    ##  3 10022  58.5 male             14             3             8            NA
    ##  4 10026  72.7 male             20             6            18            16
    ##  5 10035  60.4 male              4             0             1             2
    ##  6 10050  84.7 male              2            10            12             8
    ##  7 10078  31.3 male              4             0            NA            NA
    ##  8 10088  56.9 male              5            NA             0             2
    ##  9 10091  76.0 male              0             3             4             0
    ## 10 10092  74.2 female           10             2            11             6
    ## # … with 1,077 more rows
